1. Settings module:
 - url resourse
## - count news for save at once.
##2. Block
##2.1. Settings:
     ##- count news for display


Create:
##- bundle of node
 ## - title
##  - body
##  - img
##  - date of news
###- Block
##  - title = href(AJAX add excerpt)
